…
And as textual intervals:

``` r
last_trial %>%
  compare_levels(mu, by = vis, comparison = pairwise) %>%
  median_qi()
```

    ## # A tibble: 45 x 5
    ## # Groups: vis [45]
    ##    vis                      mu  conf.low conf.high .prob
    ##    <fctr>                <dbl>     <dbl>     <dbl> <dbl>
    ##  1 text - none        -0.0101  -0.0508      0.0262 0.950
    ##  2 interval - none     0.00195 -0.0367      0.0373 0.950
    ##  3 pdf - none          0.0119  -0.0119      0.0464 0.950
    ##  4 pdfinterval - none  0.0178  -0.00962     0.0530 0.950
    ##  5 text60 - none       0.0198  -0.00574     0.0558 0.950
    ##  6 text99 - none       0.0232  -0.00106     0.0585 0.950
    ##  7 dot20 - none        0.0242  -0.000583    0.0601 0.950
    ##  8 cdf - none          0.0313   0.00715     0.0684 0.950
    ##  9 dot50 - none        0.0444   0.0214      0.0832 0.950
    ## 10 interval - text     0.0120  -0.0256      0.0540 0.950
    ## # ... with 35 more rows
…
And as textual intervals:

``` r
last_trial %>%
  compare_levels(sd, by = vis, comparison = pairwise) %>%
  median_qi()
```

    ## # A tibble: 45 x 5
    ## # Groups: vis [45]
    ##    vis                      sd conf.low conf.high .prob
    ##    <fctr>                <dbl>    <dbl>     <dbl> <dbl>
    ##  1 text - none         0.0204  -0.00145   0.0436  0.950
    ##  2 interval - none     0.00590 -0.0143    0.0287  0.950
    ##  3 pdf - none          0.00316 -0.0139    0.0188  0.950
    ##  4 pdfinterval - none -0.0146  -0.0326    0.00189 0.950
    ##  5 text60 - none      -0.0141  -0.0321    0.00208 0.950
    ##  6 text99 - none      -0.0128  -0.0303    0.00249 0.950
    ##  7 dot20 - none       -0.0260  -0.0441   -0.0108  0.950
    ##  8 cdf - none         -0.0267  -0.0441   -0.0120  0.950
    ##  9 dot50 - none       -0.0387  -0.0565   -0.0244  0.950
    ## 10 interval - text    -0.0142  -0.0396    0.00883 0.950
    ## # ... with 35 more rows
